{
    "version": 1,
    "general": {
        "color": "Blue",
        "columns": 61,
        "seconds": 120
    },
    "levelPortalIn": {
        "column": 0,
        "row": 11,
        "height": 6
    },
    "levelPortalOut": {
        "column": 43,
        "row": 6,
        "height": 3
    },
    "boardItems": [
        {
            "kind": "LightPlatform",
            "column": 0,
            "row": 0,
            "width": 61,
            "height": 1
        },
        {
            "kind": "Platform",
            "column": 20,
            "row": 7,
            "width": 2,
            "height": 1
        },
        {
            "kind": "TopWall1x2",
            "column": 19,
            "row": 1,
            "width": 2,
            "height": 10
        },
        {
            "kind": "TopSpikes",
            "column": 2,
            "row": 1,
            "width": 2,
            "height": 1
        },
        {
            "kind": "BottomWall1x2",
            "column": 6,
            "row": 3,
            "width": 2,
            "height": 2
        },
        {
            "kind": "BottomWall",
            "column": 2,
            "row": 5,
            "width": 10,
            "height": 1
        },
        {
            "kind": "TopSpikes",
            "column": 8,
            "row": 6,
            "width": 2,
            "height": 1
        },
        {
            "kind": "BottomWall1x2",
            "column": 4,
            "row": 8,
            "width": 2,
            "height": 2
        },
        {
            "kind": "BottomWall",
            "column": 0,
            "row": 10,
            "width": 10,
            "height": 1
        },
        {
            "kind": "BottomWall1x2",
            "column": 4,
            "row": 11,
            "width": 2,
            "height": 3
        },
        {
            "kind": "BottomWall",
            "column": 4,
            "row": 14,
            "width": 6,
            "height": 1
        },
        {
            "kind": "Ladder",
            "column": 0,
            "row": 1,
            "width": 2,
            "height": 9
        },
        {
            "kind": "Ladder",
            "column": 10,
            "row": 6,
            "width": 2,
            "height": 11
        },
        {
            "kind": "BottomWall1x2",
            "column": 12,
            "row": 5,
            "width": 2,
            "height": 12
        },
        {
            "kind": "LeftSpikes",
            "column": 14,
            "row": 5,
            "width": 1,
            "height": 12
        },
        {
            "kind": "RightSpikes",
            "column": 18,
            "row": 1,
            "width": 1,
            "height": 10
        },
        {
            "kind": "BottomSpikes",
            "column": 18,
            "row": 16,
            "width": 2,
            "height": 1
        },
        {
            "kind": "BottomWall",
            "column": 21,
            "row": 10,
            "width": 10,
            "height": 1
        },
        {
            "kind": "TopWall1x2",
            "column": 23,
            "row": 11,
            "width": 2,
            "height": 3
        },
        {
            "kind": "TopSpikes",
            "column": 23,
            "row": 14,
            "width": 2,
            "height": 1
        },
        {
            "kind": "TopSpikes",
            "column": 28,
            "row": 11,
            "width": 3,
            "height": 1
        },
        {
            "kind": "BottomSpikes",
            "column": 29,
            "row": 16,
            "width": 1,
            "height": 1
        },
        {
            "kind": "BottomWall1x2",
            "column": 26,
            "row": 4,
            "width": 2,
            "height": 1
        },
        {
            "kind": "BottomWall1x2",
            "column": 31,
            "row": 4,
            "width": 2,
            "height": 1
        },
        {
            "kind": "BottomWall1x2",
            "column": 44,
            "row": 4,
            "width": 2,
            "height": 1
        },
        {
            "kind": "Platform",
            "column": 50,
            "row": 5,
            "width": 3,
            "height": 1
        },
        {
            "kind": "Platform",
            "column": 59,
            "row": 7,
            "width": 3,
            "height": 1
        },
        {
            "kind": "Platform",
            "column": 50,
            "row": 9,
            "width": 3,
            "height": 1
        },
        {
            "kind": "Platform",
            "column": 59,
            "row": 11,
            "width": 3,
            "height": 1
        },
        {
            "kind": "Platform",
            "column": 46,
            "row": 13,
            "width": 7,
            "height": 1
        },
        {
            "kind": "BottomWall1x2",
            "column": 49,
            "row": 4,
            "width": 2,
            "height": 10
        },
        {
            "kind": "TopSpikes",
            "column": 49,
            "row": 14,
            "width": 2,
            "height": 1
        },
        {
            "kind": "Platform",
            "column": 24,
            "row": 5,
            "width": 11,
            "height": 1
        },
        {
            "kind": "Platform",
            "column": 32,
            "row": 11,
            "width": 3,
            "height": 1
        },
        {
            "kind": "TopWall1x2",
            "column": 31,
            "row": 6,
            "width": 2,
            "height": 6
        },
        {
            "kind": "Platform",
            "column": 37,
            "row": 14,
            "width": 3,
            "height": 1
        },
        {
            "kind": "Platform",
            "column": 40,
            "row": 15,
            "width": 2,
            "height": 1
        },
        {
            "kind": "Platform",
            "column": 38,
            "row": 4,
            "width": 2,
            "height": 1
        },
        {
            "kind": "Platform",
            "column": 37,
            "row": 8,
            "width": 3,
            "height": 1
        },
        {
            "kind": "LeftSpikes",
            "column": 41,
            "row": 11,
            "width": 1,
            "height": 1
        },
        {
            "kind": "RightSpikes",
            "column": 48,
            "row": 10,
            "width": 1,
            "height": 1
        },
        {
            "kind": "BottomWall1x2",
            "column": 39,
            "row": 4,
            "width": 2,
            "height": 13
        },
        {
            "kind": "BottomWall",
            "column": 41,
            "row": 5,
            "width": 8,
            "height": 1
        },
        {
            "kind": "BottomSpikes",
            "column": 44,
            "row": 16,
            "width": 2,
            "height": 1
        },
        {
            "kind": "BottomWall",
            "column": 0,
            "row": 17,
            "width": 61,
            "height": 1
        },
        {
            "kind": "Pattern3x3_1",
            "column": 16,
            "row": 12,
            "width": 1,
            "height": 1
        },
        {
            "kind": "Pattern3x3_2",
            "column": 31,
            "row": 13,
            "width": 1,
            "height": 1
        },
        {
            "kind": "Pattern3x3_1",
            "column": 43,
            "row": 11,
            "width": 1,
            "height": 1
        },
        {
            "kind": "Pattern3x3_3",
            "column": 14,
            "row": 2,
            "width": 1,
            "height": 1
        }
    ],
    "movingPlatforms": [],
    "enemies": [
        {
            "kind": "Horizontal",
            "timeResist": false,
            "xPos": 96,
            "yPos": 16,
            "range": "32",
            "moveOffset": 0
        },
        {
            "kind": "Vertical",
            "timeResist": false,
            "xPos": 140,
            "yPos": 48,
            "range": "8",
            "moveOffset": 0
        },
        {
            "kind": "Vertical",
            "timeResist": false,
            "xPos": 216,
            "yPos": 52,
            "range": "8",
            "moveOffset": 16
        },
        {
            "kind": "Vertical",
            "timeResist": false,
            "xPos": 224,
            "yPos": 52,
            "range": "8",
            "moveOffset": 24
        }
    ],
    "lasers": [],
    "states": [],
    "forceFields": [],
    "disappearingPlatforms": [],
    "buttons": [],
    "hourglasses": [
        {
            "timeResist": true,
            "column": 7,
            "row": 12
        },
        {
            "timeResist": true,
            "column": 10,
            "row": 2
        },
        {
            "timeResist": true,
            "column": 20,
            "row": 13
        },
        {
            "timeResist": true,
            "column": 26,
            "row": 13
        },
        {
            "timeResist": true,
            "column": 27,
            "row": 7
        },
        {
            "timeResist": true,
            "column": 59,
            "row": 4
        },
        {
            "timeResist": true,
            "column": 59,
            "row": 14
        }
    ],
    "portals": []
}