{
    "version": 1,
    "general": {
        "color": "DarkBlue",
        "columns": 40,
        "seconds": 120
    },
    "levelPortalIn": {
        "column": 8,
        "row": 5,
        "height": 3
    },
    "levelPortalOut": {
        "column": 9,
        "row": 14,
        "height": 3
    },
    "boardItems": [
        {
            "kind": "Void",
            "column": 0,
            "row": 0,
            "width": 40,
            "height": 3
        },
        {
            "kind": "LeftWall",
            "column": 0,
            "row": 3,
            "width": 1,
            "height": 14
        },
        {
            "kind": "TopWall",
            "column": 1,
            "row": 2,
            "width": 4,
            "height": 1
        },
        {
            "kind": "RightWall",
            "column": 5,
            "row": 3,
            "width": 1,
            "height": 1
        },
        {
            "kind": "LeftWall",
            "column": 16,
            "row": 2,
            "width": 1,
            "height": 1
        },
        {
            "kind": "LeftTopWall",
            "column": 16,
            "row": 3,
            "width": 1,
            "height": 1
        },
        {
            "kind": "Void",
            "column": 6,
            "row": 3,
            "width": 10,
            "height": 1
        },
        {
            "kind": "TopWallWithCorners",
            "column": 5,
            "row": 4,
            "width": 11,
            "height": 1
        },
        {
            "kind": "TopWall",
            "column": 17,
            "row": 1,
            "width": 4,
            "height": 1
        },
        {
            "kind": "RightWall",
            "column": 21,
            "row": 2,
            "width": 1,
            "height": 1
        },
        {
            "kind": "RightTopWall",
            "column": 21,
            "row": 3,
            "width": 1,
            "height": 1
        },
        {
            "kind": "LeftWall",
            "column": 27,
            "row": 2,
            "width": 1,
            "height": 2
        },
        {
            "kind": "Void",
            "column": 22,
            "row": 3,
            "width": 5,
            "height": 1
        },
        {
            "kind": "TopWallWithCorners",
            "column": 22,
            "row": 4,
            "width": 6,
            "height": 1
        },
        {
            "kind": "TopWall",
            "column": 28,
            "row": 1,
            "width": 2,
            "height": 1
        },
        {
            "kind": "RightWall",
            "column": 30,
            "row": 2,
            "width": 1,
            "height": 2
        },
        {
            "kind": "LeftWall",
            "column": 36,
            "row": 2,
            "width": 1,
            "height": 2
        },
        {
            "kind": "Void",
            "column": 31,
            "row": 3,
            "width": 5,
            "height": 1
        },
        {
            "kind": "TopWallWithCorners",
            "column": 30,
            "row": 4,
            "width": 7,
            "height": 1
        },
        {
            "kind": "TopWall",
            "column": 37,
            "row": 1,
            "width": 2,
            "height": 1
        },
        {
            "kind": "Platform",
            "column": 1,
            "row": 8,
            "width": 16,
            "height": 1
        },
        {
            "kind": "Ladder",
            "column": 2,
            "row": 9,
            "width": 2,
            "height": 8
        },
        {
            "kind": "LeftWall",
            "column": 14,
            "row": 9,
            "width": 1,
            "height": 5
        },
        {
            "kind": "RightWall",
            "column": 5,
            "row": 9,
            "width": 1,
            "height": 5
        },
        {
            "kind": "Void",
            "column": 6,
            "row": 9,
            "width": 8,
            "height": 4
        },
        {
            "kind": "TopWall",
            "column": 6,
            "row": 13,
            "width": 8,
            "height": 1
        },
        {
            "kind": "LightPlatform",
            "column": 15,
            "row": 11,
            "width": 2,
            "height": 1
        },
        {
            "kind": "Platform",
            "column": 15,
            "row": 14,
            "width": 2,
            "height": 1
        },
        {
            "kind": "BottomWall",
            "column": 21,
            "row": 8,
            "width": 7,
            "height": 1
        },
        {
            "kind": "RightWall",
            "column": 21,
            "row": 9,
            "width": 1,
            "height": 4
        },
        {
            "kind": "Void",
            "column": 22,
            "row": 9,
            "width": 5,
            "height": 4
        },
        {
            "kind": "LeftWall",
            "column": 27,
            "row": 9,
            "width": 1,
            "height": 4
        },
        {
            "kind": "TopWallWithCorners",
            "column": 21,
            "row": 13,
            "width": 7,
            "height": 1
        },
        {
            "kind": "BottomWall",
            "column": 30,
            "row": 8,
            "width": 7,
            "height": 1
        },
        {
            "kind": "RightWall",
            "column": 30,
            "row": 9,
            "width": 1,
            "height": 4
        },
        {
            "kind": "Void",
            "column": 31,
            "row": 9,
            "width": 5,
            "height": 4
        },
        {
            "kind": "LeftWall",
            "column": 36,
            "row": 9,
            "width": 1,
            "height": 4
        },
        {
            "kind": "TopWallWithCorners",
            "column": 30,
            "row": 13,
            "width": 7,
            "height": 1
        },
        {
            "kind": "BottomSpikes",
            "column": 23,
            "row": 16,
            "width": 16,
            "height": 1
        },
        {
            "kind": "RightWall",
            "column": 39,
            "row": 2,
            "width": 1,
            "height": 15
        },
        {
            "kind": "Void",
            "column": 0,
            "row": 17,
            "width": 40,
            "height": 1
        },
        {
            "kind": "BottomWall",
            "column": 1,
            "row": 17,
            "width": 38,
            "height": 1
        }
    ],
    "movingPlatforms": [],
    "enemies": [
        {
            "kind": "Vertical",
            "timeResist": false,
            "xPos": 76,
            "yPos": 40,
            "range": "8",
            "moveOffset": 32
        },
        {
            "kind": "Vertical",
            "timeResist": true,
            "xPos": 112,
            "yPos": 32,
            "range": "8",
            "moveOffset": 16
        },
        {
            "kind": "Vertical",
            "timeResist": true,
            "xPos": 148,
            "yPos": 32,
            "range": "8",
            "moveOffset": 0
        }
    ],
    "lasers": [],
    "states": [
        {
            "timeResist": true,
            "on": false
        }
    ],
    "forceFields": [
        {
            "methodKind": "State",
            "invertedActivation": false,
            "timeResist": true,
            "column": 14,
            "row": 4,
            "height": 4,
            "mask": 0,
            "state": 0
        },
        {
            "methodKind": "State",
            "invertedActivation": false,
            "timeResist": true,
            "column": 5,
            "row": 13,
            "height": 4,
            "mask": 0,
            "state": 0
        },
        {
            "methodKind": "State",
            "invertedActivation": false,
            "timeResist": true,
            "column": 14,
            "row": 13,
            "height": 4,
            "mask": 0,
            "state": 0
        },
        {
            "methodKind": "Time",
            "invertedActivation": false,
            "timeResist": false,
            "column": 24,
            "row": 4,
            "height": 4,
            "mask": 24,
            "state": 0
        },
        {
            "methodKind": "Time",
            "invertedActivation": false,
            "timeResist": false,
            "column": 33,
            "row": 4,
            "height": 4,
            "mask": 8,
            "state": 0
        }
    ],
    "disappearingPlatforms": [],
    "buttons": [
        {
            "kind": "TurnsOn",
            "timeResist": true,
            "column": 5,
            "row": 7,
            "state": 0
        }
    ],
    "hourglasses": [
        {
            "timeResist": true,
            "column": 2,
            "row": 4
        },
        {
            "timeResist": true,
            "column": 7,
            "row": 15
        },
        {
            "timeResist": false,
            "column": 21,
            "row": 6
        },
        {
            "timeResist": false,
            "column": 26,
            "row": 6
        },
        {
            "timeResist": false,
            "column": 30,
            "row": 6
        },
        {
            "timeResist": false,
            "column": 35,
            "row": 6
        },
        {
            "timeResist": true,
            "column": 21,
            "row": 15
        },
        {
            "timeResist": true,
            "column": 26,
            "row": 15
        },
        {
            "timeResist": true,
            "column": 30,
            "row": 15
        },
        {
            "timeResist": true,
            "column": 35,
            "row": 15
        }
    ],
    "portals": []
}